{
    "data": {
        "content": [
            {
                "alertContent": "目标来到四川",
                "alertDate": 1530673710001,
                "alertInfo": "目标16872870069来到四川，时间2018/07/04",
                "alertType": 0,
                "areaLevel": 0,
                "currentLocation": "四川",
                "eventType": "位置更新",
                "imsiNumber": "287032641112608",
                "phoneNumber": "16872870069",
                "preLocation": "北京"
            },
            {
                "alertContent": "目标离开四川",
                "alertDate": 1530673695001,
                "alertInfo": "目标18193974563离开四川，时间2018/07/04",
                "alertType": 1,
                "areaLevel": 0,
                "currentLocation": "四川",
                "eventType": "清除MS",
                "imsiNumber": "047751952128930",
                "phoneNumber": "18193974563",
                "preLocation": "山东"
            },
            {
                "alertContent": "目标离开四川",
                "alertDate": 1530673680002,
                "alertInfo": "目标16443828954离开四川，时间2018/07/04",
                "alertType": 1,
                "areaLevel": 0,
                "currentLocation": "四川",
                "eventType": "清除MS",
                "imsiNumber": "457980440790578",
                "phoneNumber": "16443828954",
                "preLocation": "上海"
            },
            {
                "alertContent": "目标离开四川",
                "alertDate": 1530673665001,
                "alertInfo": "目标14701406449离开四川，时间2018/07/04",
                "alertType": 1,
                "areaLevel": 0,
                "currentLocation": "四川",
                "eventType": "清除MS",
                "imsiNumber": "728968047265823",
                "phoneNumber": "14701406449",
                "preLocation": "台湾"
            },
            {
                "alertContent": "目标离开四川",
                "alertDate": 1530673650001,
                "alertInfo": "目标16212301976离开四川，时间2018/07/04",
                "alertType": 1,
                "areaLevel": -1,
                "currentLocation": "",
                "eventType": "清除MS",
                "imsiNumber": "850027151752139",
                "phoneNumber": "16212301976",
                "preLocation": ""
            },
            {
                "alertContent": "目标离开四川",
                "alertDate": 1530673635002,
                "alertInfo": "目标14607134256离开四川，时间2018/07/04",
                "alertType": 1,
                "areaLevel": 1,
                "currentLocation": "China",
                "eventType": "清除MS",
                "imsiNumber": "680022214274808",
                "phoneNumber": "14607134256",
                "preLocation": "Italy"
            },
            {
                "alertContent": "目标来到四川",
                "alertDate": 1530673620001,
                "alertInfo": "目标11475322528来到四川，时间2018/07/04",
                "alertType": 0,
                "areaLevel": -1,
                "currentLocation": "",
                "eventType": "位置注销",
                "imsiNumber": "048707140005672",
                "phoneNumber": "11475322528",
                "preLocation": ""
            },
            {
                "alertContent": "目标正在和他人通联",
                "alertDate": 1530673605002,
                "alertInfo": "目标16632403144正在和他人通联，时间2018/07/04",
                "alertType": 2,
                "areaLevel": 1,
                "currentLocation": "China",
                "eventType": "MT前向",
                "imsiNumber": "960614007802720",
                "phoneNumber": "16632403144",
                "preLocation": "Montenegro"
            },
            {
                "alertContent": "目标正在和他人通联",
                "alertDate": 1530673590000,
                "alertInfo": "目标13349640431正在和他人通联，时间2018/07/04",
                "alertType": 2,
                "areaLevel": -1,
                "currentLocation": "",
                "eventType": "通联结果",
                "imsiNumber": "760151942272957",
                "phoneNumber": "13349640431",
                "preLocation": ""
            },
            {
                "alertContent": "目标来到四川",
                "alertDate": 1530673575002,
                "alertInfo": "目标15310304208来到四川，时间2018/07/04",
                "alertType": 0,
                "areaLevel": 0,
                "currentLocation": "河北",
                "eventType": "位置注销",
                "imsiNumber": "716124970808639",
                "phoneNumber": "15310304208",
                "preLocation": "四川"
            }
        ],
        "first": false,
        "last": false,
        "number": 1,
        "numberOfElements": 10,
        "pageable": {
            "offset": 0,
            "pageNumber": 1,
            "pageSize": 10,
            "paged": true,
            "pagenumber": 1,
            "pagesize": 10,
            "sort": {
                "sorted": true,
                "unsorted": false
            },
            "unpaged": false
        },
        "size": 10,
        "sort": {
            "$ref": "$.data.pageable.sort"
        },
        "totalElements": 45052,
        "totalPages": 4506
    },
    "errMsg": "success",
    "retCode": 0
}